ggWW          diboson
ggZllH125     signal
ggZllH125cc   hcc
ggZZ          diboson
ggZvvH125     signal
ggZvvH125cc   hcc
qqWlvH125     signal
qqWlvH125cc   hcc
qqZllH125     signal
qqZllH125cc   hcc
qqZvvH125     signal
qqZvvH125cc   hcc
stops         stop
stopt         stop
stopWt        stop
ttbar         ttbar
Wl            Wjets
Wcl           Wjets
Wbl           Wjets
Wbc           Wjets
Wbb           Wjets
Wcc           Wjets
WZ            diboson
WW            diboson
ZZ            diboson
Zl            Zjets
Zbl           Zjets
Zcl           Zjets
Zbb           Zjets
Zbc           Zjets
