14:13:55 jobsub(INFO): Loaded config file /home/ratkin/workdir/Allpix/ilcsoft/v01-17-10/Eutelescope/v1.0/jobsub/examples/GBL/noDUTExample/config/config.cfg
14:13:55 jobsub(WARNING): Parameter 'basepath' was not found in template file geoclustering-tmp.xml
14:13:55 jobsub(WARNING): Parameter 'hotpixelrunnumber' was not found in template file geoclustering-tmp.xml
14:13:55 jobsub(WARNING): Parameter 'alibavahistoinfo' was not found in template file geoclustering-tmp.xml
14:13:55 jobsub(WARNING): Parameter 'nativepath' was not found in template file geoclustering-tmp.xml
14:13:55 jobsub(INFO): Successfully loaded csv file'/home/ratkin/workdir/Allpix/ilcsoft/v01-17-10/Eutelescope/v1.0/jobsub/examples/GBL/noDUTExample/runlist/runlist.csv'.
14:13:55 jobsub(INFO): Will now start processing the following runs: 900001
14:13:55 jobsub(INFO): Now generating steering file for run number 900001..
14:13:55 jobsub(WARNING): Parameter 'beamenergy' from the csv file was not found in the template file (already overwritten by config file parameters?)
14:13:56 jobsub.geoclustering(INFO): Now running Marlin on geoclustering-900001.xml
14:13:56 jobsub.geoclustering(INFO): <!-- Loading shared library : /atlas/ratkin/Allpix/ilcsoft/v01-17-10/Eutelescope/v1.0/lib/libEutelescope.so.1.0.0 (libEutelescope.so)-->
14:13:56 jobsub.geoclustering(INFO): <!-- Loading shared library : /atlas/ratkin/Allpix/ilcsoft/v01-17-10/Eutelescope/v1.0/external/eudaq/v1.6-dev/lib/libNativeReader.so (libNativeReader.so)-->
14:13:56 jobsub.geoclustering(INFO): 
14:13:56 jobsub.geoclustering(INFO): [ VERBOSE "AIDA"] ---------------------------------- R A I D A ----------------------------------
14:13:56 jobsub.geoclustering(INFO): [ VERBOSE "AIDA"] ROOT Implementation of the Abstract Interfaces for Data Analysis (AIDA v3.2.1)
14:13:56 jobsub.geoclustering(INFO): [ VERBOSE "AIDA"]
14:13:56 jobsub.geoclustering(INFO): [ VERBOSE "AIDA"] RAIDA Version: not supported by cvs2svn
14:13:56 jobsub.geoclustering(INFO): [ VERBOSE "AIDA"]
14:13:56 jobsub.geoclustering(INFO): [ VERBOSE "AIDA"] RAIDA only creates simple ROOT histograms
14:13:56 jobsub.geoclustering(INFO): [ VERBOSE "AIDA"] Used ROOT Release: 6.06/06
14:13:56 jobsub.geoclustering(INFO): [ VERBOSE "AIDA"] -------------------------------------------------------------------------------
14:13:56 jobsub.geoclustering(INFO): [ VERBOSE "AIDA"]
14:13:57 jobsub.geoclustering(WARNING): [ WARNING "ClusteringMimosa"] gear::TrackerPlanes NOT found
14:13:57 jobsub.geoclustering(INFO): [ MESSAGE9 "ClusteringMimosa"] THESE MATRICES ARE USED TO TAKE A POINT IN THE LOCAL FRAME AND MOVE IT TO THE GLOBAL FRAME.
14:13:57 jobsub.geoclustering(INFO): [ MESSAGE9 "ClusteringMimosa"] SensorID: 0 Rotation/Reflection matrix for this object.
14:13:57 jobsub.geoclustering(INFO): [ MESSAGE9 "ClusteringMimosa"]         -1  0   0
14:13:57 jobsub.geoclustering(INFO): [ MESSAGE9 "ClusteringMimosa"]          0  -1   0
14:13:57 jobsub.geoclustering(INFO): [ MESSAGE9 "ClusteringMimosa"]          0  0   1
14:13:57 jobsub.geoclustering(INFO): [ MESSAGE9 "ClusteringMimosa"] SensorID: 0 Translation vector for this object.
14:13:57 jobsub.geoclustering(INFO): [ MESSAGE9 "ClusteringMimosa"]          0         0         0
14:13:57 jobsub.geoclustering(INFO): [ MESSAGE9 "ClusteringMimosa"] THESE MATRICES ARE USED TO TAKE A POINT IN THE LOCAL FRAME AND MOVE IT TO THE GLOBAL FRAME.
14:13:57 jobsub.geoclustering(INFO): [ MESSAGE9 "ClusteringMimosa"] SensorID: 1 Rotation/Reflection matrix for this object.
14:13:57 jobsub.geoclustering(INFO): [ MESSAGE9 "ClusteringMimosa"]         -1  0   0
14:13:57 jobsub.geoclustering(INFO): [ MESSAGE9 "ClusteringMimosa"]          0  -1   0
14:13:57 jobsub.geoclustering(INFO): [ MESSAGE9 "ClusteringMimosa"]          0  0   1
14:13:57 jobsub.geoclustering(INFO): [ MESSAGE9 "ClusteringMimosa"] SensorID: 1 Translation vector for this object.
14:13:57 jobsub.geoclustering(INFO): [ MESSAGE9 "ClusteringMimosa"]          0         0        59
14:13:57 jobsub.geoclustering(INFO): [ MESSAGE9 "ClusteringMimosa"] THESE MATRICES ARE USED TO TAKE A POINT IN THE LOCAL FRAME AND MOVE IT TO THE GLOBAL FRAME.
14:13:57 jobsub.geoclustering(INFO): [ MESSAGE9 "ClusteringMimosa"] SensorID: 2 Rotation/Reflection matrix for this object.
14:13:57 jobsub.geoclustering(INFO): [ MESSAGE9 "ClusteringMimosa"]         -1  0   0
14:13:57 jobsub.geoclustering(INFO): [ MESSAGE9 "ClusteringMimosa"]          0  -1   0
14:13:57 jobsub.geoclustering(INFO): [ MESSAGE9 "ClusteringMimosa"]          0  0   1
14:13:57 jobsub.geoclustering(INFO): [ MESSAGE9 "ClusteringMimosa"] SensorID: 2 Translation vector for this object.
14:13:57 jobsub.geoclustering(INFO): [ MESSAGE9 "ClusteringMimosa"]          0         0     119.5
14:13:57 jobsub.geoclustering(INFO): [ MESSAGE9 "ClusteringMimosa"] THESE MATRICES ARE USED TO TAKE A POINT IN THE LOCAL FRAME AND MOVE IT TO THE GLOBAL FRAME.
14:13:57 jobsub.geoclustering(INFO): [ MESSAGE9 "ClusteringMimosa"] SensorID: 3 Rotation/Reflection matrix for this object.
14:13:57 jobsub.geoclustering(INFO): [ MESSAGE9 "ClusteringMimosa"]         -1  0   0
14:13:57 jobsub.geoclustering(INFO): [ MESSAGE9 "ClusteringMimosa"]          0  -1   0
14:13:57 jobsub.geoclustering(INFO): [ MESSAGE9 "ClusteringMimosa"]          0  0   1
14:13:57 jobsub.geoclustering(INFO): [ MESSAGE9 "ClusteringMimosa"] SensorID: 3 Translation vector for this object.
14:13:57 jobsub.geoclustering(INFO): [ MESSAGE9 "ClusteringMimosa"]          0         0       404
14:13:57 jobsub.geoclustering(INFO): [ MESSAGE9 "ClusteringMimosa"] THESE MATRICES ARE USED TO TAKE A POINT IN THE LOCAL FRAME AND MOVE IT TO THE GLOBAL FRAME.
14:13:57 jobsub.geoclustering(INFO): [ MESSAGE9 "ClusteringMimosa"] SensorID: 4 Rotation/Reflection matrix for this object.
14:13:57 jobsub.geoclustering(INFO): [ MESSAGE9 "ClusteringMimosa"]         -1  0   0
14:13:57 jobsub.geoclustering(INFO): [ MESSAGE9 "ClusteringMimosa"]          0  -1   0
14:13:57 jobsub.geoclustering(INFO): [ MESSAGE9 "ClusteringMimosa"]          0  0   1
14:13:57 jobsub.geoclustering(INFO): [ MESSAGE9 "ClusteringMimosa"] SensorID: 4 Translation vector for this object.
14:13:57 jobsub.geoclustering(INFO): [ MESSAGE9 "ClusteringMimosa"]          0         0       534
14:13:57 jobsub.geoclustering(INFO): [ MESSAGE9 "ClusteringMimosa"] THESE MATRICES ARE USED TO TAKE A POINT IN THE LOCAL FRAME AND MOVE IT TO THE GLOBAL FRAME.
14:13:57 jobsub.geoclustering(INFO): [ MESSAGE9 "ClusteringMimosa"] SensorID: 5 Rotation/Reflection matrix for this object.
14:13:57 jobsub.geoclustering(INFO): [ MESSAGE9 "ClusteringMimosa"]         -1  0   0
14:13:57 jobsub.geoclustering(INFO): [ MESSAGE9 "ClusteringMimosa"]          0  -1   0
14:13:57 jobsub.geoclustering(INFO): [ MESSAGE9 "ClusteringMimosa"]          0  0   1
14:13:57 jobsub.geoclustering(INFO): [ MESSAGE9 "ClusteringMimosa"] SensorID: 5 Translation vector for this object.
14:13:57 jobsub.geoclustering(INFO): [ MESSAGE9 "ClusteringMimosa"]          0         0       664
14:13:57 jobsub.geoclustering(WARNING): [ WARNING4 "ClusteringMimosa"]  -----------
14:13:57 jobsub.geoclustering(WARNING): [ WARNING4 "ClusteringMimosa"]  the following processor will modify the LCIO event :  ClusteringMimosa !!
14:13:57 jobsub.geoclustering(WARNING): [ WARNING4 "ClusteringMimosa"]  ------------
14:13:57 jobsub.geoclustering(WARNING): [ WARNING1 "NoisyClusterMasker"] noisyPixelCollectionName hotpixel_m26 not found
14:13:57 jobsub.geoclustering(WARNING): [ WARNING1 "NoisyClusterMasker"] READ CAREFULLY: This means that no noisy pixels will be removed, despite the processor successfully running!
14:13:57 jobsub.geoclustering(INFO): [ MESSAGE5 "EUTelUtilityPrintEventNumber"] Processing event       2 in run 000000
14:13:57 jobsub.geoclustering(INFO): [ MESSAGE5 "EUTelUtilityPrintEventNumber"] Processing event       3 in run 000000
14:13:57 jobsub.geoclustering(INFO): [ MESSAGE5 "EUTelUtilityPrintEventNumber"] Processing event       4 in run 000000
14:13:57 jobsub.geoclustering(INFO): [ MESSAGE5 "EUTelUtilityPrintEventNumber"] Processing event       5 in run 000000
14:13:57 jobsub.geoclustering(INFO): [ MESSAGE5 "EUTelUtilityPrintEventNumber"] Processing event       6 in run 000000
14:13:57 jobsub.geoclustering(INFO): [ MESSAGE5 "EUTelUtilityPrintEventNumber"] Processing event       7 in run 000000
14:13:57 jobsub.geoclustering(INFO): [ MESSAGE5 "EUTelUtilityPrintEventNumber"] Processing event       8 in run 000000
14:13:57 jobsub.geoclustering(INFO): [ MESSAGE5 "EUTelUtilityPrintEventNumber"] Processing event       9 in run 000000
14:13:57 jobsub.geoclustering(INFO): [ MESSAGE5 "EUTelUtilityPrintEventNumber"] Processing event      10 in run 000000
14:13:57 jobsub.geoclustering(INFO): [ MESSAGE5 "EUTelUtilityPrintEventNumber"] Processing event      20 in run 000000
14:13:57 jobsub.geoclustering(INFO): [ MESSAGE5 "EUTelUtilityPrintEventNumber"] Processing event      30 in run 000000
14:13:57 jobsub.geoclustering(INFO): [ MESSAGE5 "EUTelUtilityPrintEventNumber"] Processing event      40 in run 000000
14:13:57 jobsub.geoclustering(INFO): [ MESSAGE5 "EUTelUtilityPrintEventNumber"] Processing event      50 in run 000000
14:13:57 jobsub.geoclustering(INFO): [ MESSAGE5 "EUTelUtilityPrintEventNumber"] Processing event      60 in run 000000
14:13:57 jobsub.geoclustering(INFO): [ MESSAGE5 "EUTelUtilityPrintEventNumber"] Processing event      70 in run 000000
14:13:57 jobsub.geoclustering(INFO): [ MESSAGE5 "EUTelUtilityPrintEventNumber"] Processing event      80 in run 000000
14:13:57 jobsub.geoclustering(INFO): [ MESSAGE5 "EUTelUtilityPrintEventNumber"] Processing event      90 in run 000000
14:13:57 jobsub.geoclustering(INFO): [ MESSAGE5 "EUTelUtilityPrintEventNumber"] Processing event     100 in run 000000
14:13:58 jobsub.geoclustering(WARNING): [ WARNING "Marlin"] lcio::EndOfDataException: SIOReader::readStream(int maxRecord) : EOF before 10000 records read from file
14:13:58 jobsub.geoclustering(WARNING): [ WARNING "Save"] Adding a EORE because was missing
14:13:58 jobsub.geoclustering(INFO): [ MESSAGE5 "Save"] Writing the output file /home/ratkin/workdir/Allpix/ilcsoft/v01-17-10/Eutelescope/v1.0/jobsub/examples/GBL/noDUTExample/output/lcio/run900005-geoclustering.slcio
14:13:59 jobsub.geoclustering(INFO): [ MESSAGE3 "Marlin"] Deleting Mimosa26.so
14:13:59 jobsub.geoclustering(INFO): [ MESSAGE3 "Marlin"] Deleting Mimosa26b.so
14:13:59 jobsub(INFO): Marlin execution done
14:13:59 jobsub(INFO): Logs written to /home/ratkin/workdir/Allpix/ilcsoft/v01-17-10/Eutelescope/v1.0/jobsub/examples/GBL/noDUTExample/output/logs/geoclustering-900001.zip
