# Fits from the 2 lepton zjets data driven
# Don't leave empty lines
three_plus_jet_inclusive_blind_pTBB,-1.53973821382e-05,0.000114360934604,0.999936600112,0.0167548367898
two_jet_inclusive_blind_dRBB,-0.0246014735537,0.012274157816,1.05637086287,0.0307568699301
three_plus_jet_inclusive_blind_dRBB,0.0196181604461,0.00687864522961,0.961140404493,0.0164817251199
three_jet_inclusive_blind_pTV,-0.179129831542,0.0713682544931,-1.06070331712,0.0321422332306
two_plus_jet_inclusive_blind_dRBB,0.0072970858929,0.00601103322652,0.987573285299,0.0145757584574
two_jet_inclusive_blind_METpT,-0.218695408497,0.0902199593666,-1.07771663196,0.0378506567352
two_plus_jet_inclusive_blind_METpT,-0.110270127116,0.0424492194744,-1.04217419319,0.0193192643026
two_plus_jet_inclusive_blind_pTBB,-6.50894684457e-05,0.000103045091596,1.0033540417,0.0148808367264
three_jet_inclusive_blind_dRBB,0.0130837342919,0.0110703777383,0.977038745579,0.0271687097058
three_plus_jet_inclusive_blind_pTV,-0.175867365615,0.0434060866369,-1.05958902965,0.0204574581489
two_jet_inclusive_blind_pTBB,-0.000301113952002,0.000237399107515,1.02324732182,0.03258667995
two_plus_jet_inclusive_blind_pTV,-0.197735419642,0.0379710192206,-1.06770590623,0.0174666873337
two_jet_inclusive_blind_mBB,-0.00014468405043,0.000155703358112,-1.02536980739,0.0279627764443
three_plus_jet_inclusive_blind_METpT,-0.0598423337748,0.0487200299709,-1.02377499204,0.0226814241129
two_jet_inclusive_blind_pTV,-0.242415279459,0.0815384860712,-1.08264858222,0.0344859211504
three_plus_jet_inclusive_blind_mBB,0.00025702710176,8.86860810325e-05,-0.966956016362,0.0152244926062
three_jet_inclusive_blind_pTBB,1.61969181848e-05,0.000190518721783,0.99345103632,0.0270364400147
two_plus_jet_inclusive_blind_mBB,0.000134379794918,7.7260559094e-05,-0.985894070512,0.0134507326815
three_jet_inclusive_blind_mBB,3.9657570288e-05,0.000140894416102,-1.00278841646,0.0248642715076
three_jet_inclusive_blind_METpT,-0.0616066928846,0.0795456749,-1.02387397795,0.0352836329051
